{
	"id": "a1",
	"firstName": "Jet",
	"lastName": "Li",
	"email": "jetli@wingchun.com",
	"password": "KungFu123",
	"isAdmin": false,
	"mobileNumber": "09326247596",
}

{
	"id": "a2",
	"firstName": "Bruce",
	"lastName": "Lee",
	"email": "brucelee@wingchun.com",
	"password": "123KungFu",
	"isAdmin": true,
	"mobileNumber": "09326247598",
}